
brinquematica npc 6.png
size: 2048,256
format: RGBA8888
filter: Linear,Linear
repeat: none
P L
  rotate: false
  xy: 1738, 230
  size: 24, 24
  orig: 24, 24
  offset: 0, 0
  index: -1
P R
  rotate: false
  xy: 1452, 160
  size: 12, 16
  orig: 12, 16
  offset: 0, 0
  index: -1
arm L
  rotate: true
  xy: 686, 98
  size: 156, 312
  orig: 156, 312
  offset: 0, 0
  index: -1
arm R 1
  rotate: false
  xy: 1000, 106
  size: 184, 148
  orig: 184, 148
  offset: 0, 0
  index: -1
arm R 2
  rotate: false
  xy: 1186, 106
  size: 72, 148
  orig: 72, 148
  offset: 0, 0
  index: -1
body 1
  rotate: true
  xy: 1366, 178
  size: 76, 100
  orig: 76, 100
  offset: 0, 0
  index: -1
body 2
  rotate: true
  xy: 348, 6
  size: 248, 336
  orig: 248, 336
  offset: 0, 0
  index: -1
body 3
  rotate: false
  xy: 686, 52
  size: 224, 44
  orig: 224, 44
  offset: 0, 0
  index: -1
body_white mask
  rotate: true
  xy: 1468, 218
  size: 36, 120
  orig: 36, 120
  offset: 0, 0
  index: -1
eyes 1
  rotate: false
  xy: 1590, 210
  size: 92, 44
  orig: 92, 44
  offset: 0, 0
  index: -1
eyes 2
  rotate: false
  xy: 1468, 180
  size: 96, 36
  orig: 96, 36
  offset: 0, 0
  index: -1
eyes 3
  rotate: false
  xy: 686, 2
  size: 96, 48
  orig: 96, 48
  offset: 0, 0
  index: -1
eyes 4
  rotate: false
  xy: 784, 2
  size: 96, 48
  orig: 96, 48
  offset: 0, 0
  index: -1
gola
  rotate: false
  xy: 882, 2
  size: 80, 40
  orig: 80, 40
  offset: 0, 0
  index: -1
gravata
  rotate: true
  xy: 912, 44
  size: 52, 88
  orig: 52, 88
  offset: 0, 0
  index: -1
hand R
  rotate: false
  xy: 1260, 162
  size: 104, 92
  orig: 104, 92
  offset: 0, 0
  index: -1
hand R finger 1
  rotate: true
  xy: 1260, 116
  size: 44, 104
  orig: 44, 104
  offset: 0, 0
  index: -1
hand R finger 2
  rotate: false
  xy: 964, 6
  size: 32, 36
  orig: 32, 36
  offset: 0, 0
  index: -1
head
  rotate: true
  xy: 2, 6
  size: 248, 344
  orig: 248, 344
  offset: 0, 0
  index: -1
head neck
  rotate: true
  xy: 1366, 108
  size: 68, 84
  orig: 68, 84
  offset: 0, 0
  index: -1
head s L
  rotate: false
  xy: 1684, 226
  size: 52, 28
  orig: 52, 28
  offset: 0, 0
  index: -1
head s R
  rotate: false
  xy: 1566, 204
  size: 16, 12
  orig: 16, 12
  offset: 0, 0
  index: -1
