
brinquematica npc 1.png
size: 2048,256
format: RGBA8888
filter: Linear,Linear
repeat: none
P L
  rotate: false
  xy: 1510, 192
  size: 20, 24
  orig: 20, 24
  offset: 0, 0
  index: -1
P R
  rotate: false
  xy: 1020, 88
  size: 12, 16
  orig: 12, 16
  offset: 0, 0
  index: -1
arm L
  rotate: true
  xy: 630, 98
  size: 156, 312
  orig: 156, 312
  offset: 0, 0
  index: -1
arm R 1
  rotate: false
  xy: 944, 106
  size: 184, 148
  orig: 184, 148
  offset: 0, 0
  index: -1
arm R 2
  rotate: false
  xy: 1130, 106
  size: 72, 148
  orig: 72, 148
  offset: 0, 0
  index: -1
body 1
  rotate: true
  xy: 1310, 178
  size: 76, 100
  orig: 76, 100
  offset: 0, 0
  index: -1
body 2
  rotate: true
  xy: 2, 6
  size: 248, 336
  orig: 248, 336
  offset: 0, 0
  index: -1
body 3
  rotate: false
  xy: 630, 52
  size: 224, 44
  orig: 224, 44
  offset: 0, 0
  index: -1
body_white mask
  rotate: true
  xy: 1412, 218
  size: 36, 120
  orig: 36, 120
  offset: 0, 0
  index: -1
eyes 1
  rotate: false
  xy: 1310, 132
  size: 92, 44
  orig: 92, 44
  offset: 0, 0
  index: -1
eyes 2
  rotate: false
  xy: 1412, 180
  size: 96, 36
  orig: 96, 36
  offset: 0, 0
  index: -1
eyes 3
  rotate: false
  xy: 630, 2
  size: 96, 48
  orig: 96, 48
  offset: 0, 0
  index: -1
eyes 4
  rotate: false
  xy: 728, 2
  size: 96, 48
  orig: 96, 48
  offset: 0, 0
  index: -1
gola
  rotate: false
  xy: 1534, 214
  size: 80, 40
  orig: 80, 40
  offset: 0, 0
  index: -1
gravata
  rotate: true
  xy: 856, 56
  size: 40, 88
  orig: 40, 88
  offset: 0, 0
  index: -1
hand R
  rotate: false
  xy: 1204, 162
  size: 104, 92
  orig: 104, 92
  offset: 0, 0
  index: -1
hand R finger 1
  rotate: true
  xy: 1204, 116
  size: 44, 104
  orig: 44, 104
  offset: 0, 0
  index: -1
hand R finger 2
  rotate: false
  xy: 1616, 218
  size: 32, 36
  orig: 32, 36
  offset: 0, 0
  index: -1
head
  rotate: true
  xy: 340, 18
  size: 236, 288
  orig: 236, 288
  offset: 0, 0
  index: -1
head neck
  rotate: false
  xy: 946, 44
  size: 72, 60
  orig: 72, 60
  offset: 0, 0
  index: -1
head s L
  rotate: true
  xy: 826, 6
  size: 44, 24
  orig: 44, 24
  offset: 0, 0
  index: -1
head s R
  rotate: false
  xy: 1310, 118
  size: 20, 12
  orig: 20, 12
  offset: 0, 0
  index: -1
